gene	logFC	fdr	WT	ST111	descr	logFC.edgeR	logFC.cuffdiff.flipped	corrected_pval	FDR
Glyma.01G008500	-1.70048978312952	0.037128794744523	3.39811602480586	1.0444174079415	NADP-malic enzyme 4	-1.70048978312952	-1.78107	0.00288225	0.037128794744523
Glyma.01G014400	0.75150911299494	0.0221561972592938	4.29939125307702	6.67431526119248	NAD(P)-binding Rossmann-fold superfamily protein	0.75150911299494	0.936468	0.00288225	0.0221561972592938
Glyma.01G019100	-0.821204996067417	0.0335456844022233	45.8494821810193	24.8073085315392	UDP-Glycosyltransferase superfamily protein	-0.821204996067417	-0.783762	0.0332212	0.0335456844022233
Glyma.01G084700	1.06675391980846	0.00541144140139789	6.46111820350983	12.2406759061404	Ribosomal protein L12/ ATP-dependent Clp protease adaptor protein ClpS family protein	1.06675391980846	1.12583	0.00288225	0.00541144140139789
Glyma.01G109300	0.733202961649737	0.042897897999673	23.2415256965141	34.8133465756897	tubulin beta chain 3	0.733202961649737	0.793497	0.00520497	0.042897897999673
Glyma.01G153400	5.78660039066349	0.0467081512496647	0.0594534922238779	3.57846859763973	chloroplast ribosomal protein S4	5.78660039066349	6.7028	0.0324058	0.0467081512496647
Glyma.01G156400	0.783051594967787	0.0202240056522077	10.9901588683813	16.916808071118	ARID/BRIGHT DNA-binding domain-containing protein	0.783051594967787	0.884614	0.00288225	0.0202240056522077
Glyma.01G162200	-0.78288334120086	0.00394523117729047	16.3414157278046	9.15346194096499	RNA polymerase II large subunit	-0.78288334120086	-0.835543	0.00288225	0.00394523117729047
Glyma.01G176400	-0.604638160827854	0.044633170877399	9.33500249595947	5.88101267593743	no data	-0.604638160827854	-0.645823	0.0324058	0.044633170877399
Glyma.01G178000	-0.849594803786837	0.0493489547832785	11.8695267802255	6.37535178368698	Brassinosteroid signalling positive regulator (BZR1) family protein	-0.849594803786837	-0.857628	0.00710205	0.0493489547832785
Glyma.01G185200	1.03556090188398	0.0230477105533855	7.72721817006482	13.8355718013295	P-loop containing nucleoside triphosphate hydrolases superfamily protein	1.03556090188398	1.09128	0.00288225	0.0230477105533855
Glyma.01G212800	-0.647499172376942	0.0158131882579841	18.0567189905173	10.9078383885794	ACT domain repeat 8	-0.647499172376942	-0.677359	0.018471	0.018471
Glyma.01G229700	-0.564171829011153	0.0355638269188433	13.3884871237141	8.78481082661059	Pre-mRNA-splicing factor 3	-0.564171829011153	-0.623832	0.049694	0.049694
Glyma.01G233500	0.682953110292262	0.0218242358320582	5.85446823124549	8.68371890529559	no data	0.682953110292262	0.810174	0.0257404	0.0257404
Glyma.01G241600	1.62248773474288	0.0269819981394263	8.79940643296099	23.1787146873007	no data	1.62248773474288	1.57378	0.00288225	0.0269819981394263
Glyma.02G012600	-1.2021080230317	0.029279067516714	110.073657162185	47.1141154313219	Concanavalin A-like lectin protein kinase family protein	-1.2021080230317	-1.10825	0.00288225	0.029279067516714
Glyma.02G019100	-1.93595052941714	0.0490684992883296	2.83645433199956	0.7112669010012	Homeobox-leucine zipper protein family	-1.93595052941714	-2.03768	0.00288225	0.0490684992883296
Glyma.02G041800	1.31190245146019	0.000112576736056351	0.370759677983734	0.873278422259203	disease resistance protein (TIR-NBS-LRR class), putative	1.31190245146019	1.40717	0.00520497	0.00520497
Glyma.02G046300	0.742506731891536	0.0436542683392474	2.38485410252122	3.66912353294039	no data	0.742506731891536	1.08192	0.00520497	0.0436542683392474
Glyma.02G071500	1.71786979667624	0.0158131882579841	0.808760751498026	2.30936842864118	GATA transcription factor 9	1.71786979667624	1.78367	0.00288225	0.0158131882579841
Glyma.02G097500	0.583910824353868	0.0292996531855905	9.3741021815447	12.8682831891801	Transducin/WD40 repeat-like superfamily protein	0.583910824353868	0.694685	0.0287571	0.0292996531855905
Glyma.02G101100	-0.701406593575941	0.00432125642483829	7.30046388756483	4.31225446782678	Hydroxyproline-rich glycoprotein family protein	-0.701406593575941	-0.759653	0.00288225	0.00432125642483829
Glyma.02G113100	1.21849157756931	0.0160039608330623	0.659138832522172	1.4116431753011	chorismate mutase 3	1.21849157756931	1.18336	0.0471408	0.0471408
Glyma.02G119600	-1.85571170381345	0.0490684992883296	13.0795130415493	3.61064620781111	cytochrome P450, family 78, subfamily A, polypeptide 5	-1.85571170381345	-1.87839	0.00288225	0.0490684992883296
Glyma.02G155300	1.24982517969857	0.0270203521531898	34.0728944805392	69.8577953696265	Small nuclear ribonucleoprotein family protein	1.24982517969857	1.27648	0.00288225	0.0270203521531898
Glyma.02G162300	0.784399445035953	0.0386649971327618	3.82135954441305	6.28236353757301	protein kinase family protein / protein phosphatase 2C ( PP2C) family protein	0.784399445035953	0.873229	0.0164231	0.0386649971327618
Glyma.02G179900	1.16818723125452	1.97768509173739e-05	0.762702707806108	1.6455014271792	Chaperone DnaJ-domain superfamily protein	1.16818723125452	1.32805	0.015259	0.015259
Glyma.02G215100	1.10418938511755	0.0410675706041428	4.30793544333126	8.71564639938407	hydroxyproline-rich glycoprotein family protein	1.10418938511755	1.05533	0.00288225	0.0410675706041428
Glyma.02G267000	1.97020741382042	0.0368964129366667	224.697683063148	764.891453177105	no data	1.97020741382042	1.83365	0.00288225	0.0368964129366667
Glyma.02G278300	-1.38403944665577	0.000523348016612343	3.27046755788816	1.21866786385123	F-box family protein	-1.38403944665577	-1.41157	0.00288225	0.00288225
Glyma.03G004700	1.0521677002313	0.00698039606383214	6.25925852920561	11.7572981850776	Protein of unknown function (DUF1138)	1.0521677002313	1.2361	0.00288225	0.00698039606383214
Glyma.03G009100	0.942466712173478	0.0148774107827599	1.78350080625246	3.20526322120004	Per1-like family protein	0.942466712173478	0.919491	0.00288225	0.0148774107827599
Glyma.03G015500	1.0402446259767	0.00185725195717094	43.2683379513195	80.5939318505678	Thioesterase superfamily protein	1.0402446259767	1.04352	0.00288225	0.00288225
Glyma.03G040000	1.23824032768196	0.00279861940005629	100.522198623442	209.821518038679	lipid transfer protein 2	1.23824032768196	1.1824	0.00288225	0.00288225
Glyma.03G050300	1.17997910612681	0.0124257612365103	57.6228462777818	113.309523195183	Ribosomal protein S4 (RPS4A) family protein	1.17997910612681	1.23367	0.00288225	0.0124257612365103
Glyma.03G073400	1.48884742965282	0.0151502875807309	7.63315225974552	18.1281685887355	no data	1.48884742965282	1.61694	0.00288225	0.0151502875807309
Glyma.03G098200	1.03330066521046	0.0490684992883296	11.9886931850765	21.6989153242092	no data	1.03330066521046	1.28252	0.00288225	0.0490684992883296
Glyma.03G098600	1.55358592911018	0.0148774107827599	0.729332421213933	2.01801888681838	alkenal reductase	1.55358592911018	1.55341	0.0128304	0.0148774107827599
Glyma.03G124400	-1.20601907612758	0.0456212133436553	25.0333311645067	10.776808227155	beta-6 tubulin	-1.20601907612758	-1.16289	0.00288225	0.0456212133436553
Glyma.03G146700	-1.44839770768881	0.0381825897997509	1.05475056511674	0.362878569547369	Cation efflux family protein	-1.44839770768881	-1.51087	0.0139958	0.0381825897997509
Glyma.03G171400	0.88764211912838	0.0454682892551575	9.77155957036503	16.2314197893658	Histone superfamily protein	0.88764211912838	0.897179	0.00288225	0.0454682892551575
Glyma.03G189900	-1.5365766676875	0.0412019381293664	4.41869731147077	1.46744212870431	cytochrome P450, family 76, subfamily G, polypeptide 1	-1.5365766676875	-1.47841	0.00288225	0.0412019381293664
Glyma.03G207700	0.602162714440582	0.0401564386372349	20.1719413055122	28.2537106257124	Nucleic acid-binding, OB-fold-like protein	0.602162714440582	0.722213	0.0387721	0.0401564386372349
Glyma.03G234500	1.52226847534361	0.025291186252207	22.6586189993517	57.757048457693	alpha/beta-Hydrolases superfamily protein	1.52226847534361	1.50176	0.00288225	0.025291186252207
Glyma.03G262300	-1.520968864992	0.0483820967547957	1.83015065789595	0.579666899562337	photosystem I light harvesting complex gene 2	-1.520968864992	-1.51065	0.0195662	0.0483820967547957
Glyma.04G018700	1.83883184671344	0.0377149645545983	96.2548314312983	291.021603470594	transcription activator-related	1.83883184671344	1.76085	0.00288225	0.0377149645545983
Glyma.04G058900	-0.873303627810408	0.0367257184031907	16.6483617302262	8.53051108297414	CONSTANS-like 4	-0.873303627810408	-0.805092	0.00520497	0.0367257184031907
Glyma.04G088800	-0.740227460385911	0.015627820698933	11.33604140323	6.53585845121397	Leucine-rich receptor-like protein kinase family protein	-0.740227460385911	-0.715794	0.0128304	0.015627820698933
Glyma.04G107300	0.696915343000528	0.0202240056522077	6.37758067437581	9.36551644704159	S-adenosyl-L-methionine-dependent methyltransferases superfamily protein	0.696915343000528	0.749282	0.0218077	0.0218077
Glyma.04G150600	3.83110263075876	0.0257937307684384	0.517272849674064	6.17539603319319	DNA-directed RNA polymerase family protein	3.83110263075876	3.75001	0.00288225	0.0257937307684384
Glyma.04G161300	1.00377394647189	0.00215403887317674	5.51838038057802	10.1021719373985	Ribosomal protein L1p/L10e family	1.00377394647189	1.0966	0.00288225	0.00288225
Glyma.04G166700	0.884865524407372	0.022623388621947	5.34468088263695	8.91557125994179	FKBP-like peptidyl-prolyl cis-trans isomerase family protein	0.884865524407372	0.953739	0.00288225	0.022623388621947
Glyma.04G181900	-1.05249270545117	0.0417712534407294	2.27708287824018	1.04941568461936	Uncharacterised protein family (UPF0497)	-1.05249270545117	-1.15903	0.0116455	0.0417712534407294
Glyma.04G197300	-0.927596460979643	0.000676626095640641	91.2210266512931	45.3538236139074	Heavy metal transport/detoxification superfamily protein 	-0.927596460979643	-0.905749	0.00288225	0.00288225
Glyma.04G215800	-1.64012150317291	0.0149161970304211	2.54929913334997	0.748849548937571	photosystem I reaction center subunit PSI-N, chloroplast, putative / PSI-N, putative (PSAN)	-1.64012150317291	-1.54007	0.0401397	0.0401397
Glyma.04G225500	2.30676971008418	0.00743726215845693	8.49931525192285	37.5588572416544	response to low sulfur 2	2.30676971008418	2.2314	0.00288225	0.00743726215845693
Glyma.04G232200	-1.17041675957848	0.019756076109409	2.53118929749189	1.02574282928054	P-loop containing nucleoside triphosphate hydrolases superfamily protein	-1.17041675957848	-1.23481	0.00288225	0.019756076109409
Glyma.04G236900	-1.93808971853528	0.0468115539413288	42.316680149401	10.9565154258871	NADH-dependent glutamate synthase 1	-1.93808971853528	-1.82244	0.00288225	0.0468115539413288
Glyma.04G240800	1.51540722073209	0.0296669416303973	1.78709433563765	4.6085617977059	alcohol dehydrogenase 1	1.51540722073209	1.53905	0.00288225	0.0296669416303973
Glyma.05G016600	0.854380937527717	0.0492659138217418	13.5494139852269	21.8103766401058	Ribosomal protein L7Ae/L30e/S12e/Gadd45 family protein	0.854380937527717	0.753628	0.0443423	0.0492659138217418
Glyma.05G017800	-0.711205241159282	0.0170345663923417	5.23011028397347	3.02263414721132	basic helix-loop-helix (bHLH) DNA-binding superfamily protein	-0.711205241159282	-0.731077	0.0443423	0.0443423
Glyma.05G022900	-0.944811784094272	0.00285511648674593	5.11060908831571	2.44284998150536	photosystem I subunit F	-0.944811784094272	-0.976038	0.015259	0.015259
Glyma.05G025200	1.17685874607455	0.0263982767483183	3.7645635322256	7.63029747809741	RING/U-box superfamily protein	1.17685874607455	1.33637	0.00288225	0.0263982767483183
Glyma.05G027700	0.92275817261661	0.048587227588309	6.74684131270211	11.2007261953667	HVA22 homologue A	0.92275817261661	0.986749	0.00288225	0.048587227588309
Glyma.05G032400	0.775636739328272	0.0148774107827599	6.13097958163772	9.49493855235266	no data	0.775636739328272	0.885066	0.00710205	0.0148774107827599
Glyma.05G032600	-1.68492943009456	0.0369776354999314	13.9849643563671	4.4212110062161	ARM repeat superfamily protein	-1.68492943009456	-1.70599	0.00288225	0.0369776354999314
Glyma.05G092200	1.15597069311845	0.0241077448581933	81.9450042556559	164.803248228224	no data	1.15597069311845	1.15059	0.00288225	0.0241077448581933
Glyma.05G092300	1.32454849958206	0.0318138454742097	26.0962898847618	58.5529423895997	ATP synthase subunit 1	1.32454849958206	1.32995	0.00288225	0.0318138454742097
Glyma.05G104300	0.731087966833119	0.0145588099103029	20.1294063130943	30.4606410352052	Uncharacterised protein family SERF	0.731087966833119	0.880929	0.00288225	0.0145588099103029
Glyma.05G112400	1.11735575640931	0.0492905790707244	27.3969092431648	52.2987511832745	EYES ABSENT homolog	1.11735575640931	1.06988	0.00870113	0.0492905790707244
Glyma.05G113600	0.823444480841847	0.0306701827916666	14.0075500295838	22.2948786707925	ubiquitin family protein	0.823444480841847	0.942573	0.00520497	0.0306701827916666
Glyma.05G122100	0.627976967688292	0.00421492470992885	9.89398664974571	14.4931498342235	Protein of unknown function (DUF793)	0.627976967688292	0.667874	0.030608	0.030608
Glyma.05G168300	-1.17631960377396	0.0256201639422983	4.3613237947586	1.81981310712143	phospholipase D delta	-1.17631960377396	-1.10634	0.00288225	0.0256201639422983
Glyma.05G168400	-1.00873150842626	0.0278380806373955	6.81930285143657	3.18790823339004	2Fe-2S ferredoxin-like superfamily protein	-1.00873150842626	-1.10634	0.00288225	0.0278380806373955
Glyma.06G034500	0.793741235824531	0.047149123185002	9.02244881314756	14.0789489762902	RING/U-box superfamily protein	0.793741235824531	0.845321	0.00870113	0.047149123185002
Glyma.06G039900	1.2079862831119	0.0158131882579841	0.349458737393086	0.76911541976227	Thioredoxin superfamily protein	1.2079862831119	1.37618	0.0415263	0.0415263
Glyma.06G059600	-1.02059537767382	0.0377149645545983	47.5342035934599	23.0787090804762	CONSTANS-like 4	-1.02059537767382	-0.988679	0.00288225	0.0377149645545983
Glyma.06G092200	-1.50492639126718	0.0363048051646057	1.83458023032893	0.608849213685435	oxidoreductase, zinc-binding dehydrogenase family protein	-1.50492639126718	-1.67569	0.00288225	0.0363048051646057
Glyma.06G103200	-0.706692037740209	0.0308075019931393	9.1661692797249	5.37453216784803	cryptochrome 1	-0.706692037740209	-0.708064	0.0128304	0.0308075019931393
Glyma.06G107400	1.05141646662353	0.0209634949093603	2.58650156950055	4.98689823132417	Chaperone DnaJ-domain superfamily protein	1.05141646662353	0.994363	0.0257404	0.0257404
Glyma.06G122600	1.00362903324552	0.0263982767483183	8.84857031544699	16.0895451108845	GroES-like zinc-binding dehydrogenase family protein	1.00362903324552	0.982296	0.00288225	0.0263982767483183
Glyma.06G136200	-0.781960796440335	0.00553188526162887	48.5539913092869	26.6542503227824	Polyketide cyclase/dehydrase and lipid transport superfamily protein	-0.781960796440335	-0.798608	0.00288225	0.00553188526162887
Glyma.06G149200	-1.01924273080623	0.00198942356451722	18.8317312263485	8.88233939710231	Transcription elongation factor (TFIIS) family protein	-1.01924273080623	-0.949852	0.00288225	0.00288225
Glyma.06G168300	-0.724308008029605	0.015627820698933	108.991708066026	62.0649663684972	Heavy metal transport/detoxification superfamily protein 	-0.724308008029605	-0.741039	0.018471	0.018471
Glyma.06G184300	0.960839810814456	0.0481992950082822	15.9477403769335	27.8641908848249	no data	0.960839810814456	1.02848	0.00288225	0.0481992950082822
Glyma.06G195300	-0.950875159837781	0.00198942356451722	8.32874528411935	4.09146190012018	Protein of unknown function (DUF962)	-0.950875159837781	-0.982702	0.00710205	0.00710205
Glyma.06G206100	0.972687198570507	0.032589935743863	3.01967784705833	5.40182970991413	annexin 2	0.972687198570507	1.3635	0.00710205	0.032589935743863
Glyma.06G240000	-0.576655054066044	0.0145835988156567	19.7399415776814	12.3358936325539	Domain of unknown function (DUF3598)	-0.576655054066044	-0.603362	0.0436463	0.0436463
Glyma.06G275500	1.02585437414527	0.0291085254379667	5.43768567801181	9.6839594065252	no data	1.02585437414527	1.05274	0.00288225	0.0291085254379667
Glyma.06G289300	-0.774699998890186	0.0296669416303973	5.80357281431864	3.25855707338428	GBF\'s pro-rich region-interacting factor 1	-0.774699998890186	-0.764507	0.0164231	0.0296669416303973
Glyma.06G307200	1.48991792839153	0.022648865922465	28.3762578116854	68.1216488683842	B-cell receptor-associated 31-like	1.48991792839153	1.71006	0.00288225	0.022648865922465
Glyma.06G309100	0.702241555515929	0.0269828642699148	4.8701708035985	7.27228571832196	no data	0.702241555515929	0.947895	0.00870113	0.0269828642699148
Glyma.07G015800	-0.993770711005762	0.0284619996485459	23.67031622291	11.6186901411244	ABC-2 and Plant PDR ABC-type transporter family protein	-0.993770711005762	-1.01511	0.00288225	0.0284619996485459
Glyma.07G031600	0.685055824978522	0.0492905790707244	33.2732567048129	48.1343883839723	Alba DNA/RNA-binding protein	0.685055824978522	0.996049	0.00288225	0.0492905790707244
Glyma.07G049500	-0.99634092877451	0.0384179174266776	8.03720084143752	3.88113123046328	RNA-binding (RRM/RBD/RNP motifs) family protein	-0.99634092877451	-1.0143	0.00288225	0.0384179174266776
Glyma.07G064600	0.828697032650972	0.0221517355464458	8.96941003281179	14.4264401295692	Phosphoenolpyruvate carboxylase family protein	0.828697032650972	0.854011	0.00870113	0.0221517355464458
Glyma.07G126200	-1.0339638426999	0.029920836523947	3.04723396446494	1.45991950344383	gamma-glutamyl transpeptidase 4	-1.0339638426999	-1.10009	0.00288225	0.029920836523947
Glyma.07G140000	1.40013114169833	0.00101402809416288	20.9759417116639	50.5295703081902	glutathione S-transferase tau 7	1.40013114169833	1.349	0.00288225	0.00288225
Glyma.07G147400	-1.7482545830175	0.00147833505186819	4.40393287382705	1.24457169141398	Tetratricopeptide repeat (TPR)-like superfamily protein	-1.7482545830175	-1.64718	0.00288225	0.00288225
Glyma.07G147700	-4.10976729005095	1.58581213448328e-05	1.51403377262114	0.0852915733291673	tubby like protein 1	-4.10976729005095	-6.92819	0.00288225	0.00288225
Glyma.07G152600	1.52386651847651	0.00698039606383214	1.24170752496393	3.36628823170773	shikimate kinase like 2	1.52386651847651	1.38164	0.00288225	0.00698039606383214
Glyma.07G155300	-3.01454368280051	0.00180153869018636	1.05140634739243	0.123933158409802	GC-rich sequence DNA-binding factor-like protein	-3.01454368280051	-3.25071	0.0116455	0.0116455
Glyma.07G156000	-0.912942901693903	0.029279067516714	1.61197254049318	0.808974741198402	Leucine-rich repeat protein kinase family protein	-0.912942901693903	-0.935036	0.0431394	0.0431394
Glyma.07G156500	1.32143848309892	0.00213455082599173	12.0804943155732	27.3463501361349	Tautomerase/MIF superfamily protein	1.32143848309892	1.42078	0.00288225	0.00288225
Glyma.07G156900	-2.40163002502345	0.0230477105533855	1.79477577784342	0.322458645415095	Chaperone DnaJ-domain superfamily protein	-2.40163002502345	-4.12766	0.0139958	0.0230477105533855
Glyma.07G157000	-6.24487445902859	0.000246492370227086	0.828417132544527	0	Subtilase family protein	-6.24487445902859	-4.12766	0.0139958	0.0139958
Glyma.07G171600	-1.18968301461005	0.0321315932752846	9.26735122135213	3.9880162119774	basic helix-loop-helix (bHLH) DNA-binding superfamily protein	-1.18968301461005	-1.23745	0.00288225	0.0321315932752846
Glyma.07G178400	-0.721010095677509	8.09737022604048e-05	29.1107275246584	16.8192050623934	ARM repeat superfamily protein	-0.721010095677509	-0.697472	0.030608	0.030608
Glyma.07G178500	-2.11021638723703	0.00867575487212752	29.9194687319922	7.09867446961893	Homeodomain-like superfamily protein	-2.11021638723703	-2.12497	0.00288225	0.00867575487212752
Glyma.07G190200	-0.735472646445295	0.0108879967049075	8.26879396168572	4.75532288894357	Transducin/WD40 repeat-like superfamily protein	-0.735472646445295	-0.819884	0.0116455	0.0116455
Glyma.07G193800	1.34837774097422	0.0489520690857256	0.8088546302097	1.90747602080418	Protein of unknown function (DUF1218)	1.34837774097422	1.47611	0.00710205	0.0489520690857256
Glyma.07G199600	0.907768311266419	0.0145673251673802	6.37589458675613	10.7835945635545	Yippee family putative zinc-binding protein	0.907768311266419	1.08364	0.00520497	0.0145673251673802
Glyma.07G200200	-0.819992716507158	0.0320009840396788	292.936781291248	159.882098978189	HSP20-like chaperones superfamily protein	-0.819992716507158	-0.793261	0.0365065	0.0365065
Glyma.07G201100	1.31713108876723	0.00694386093960271	0.341243760501755	0.798728952173765	no data	1.31713108876723	1.43336	0.0257404	0.0257404
Glyma.07G204000	1.89323194204726	9.48076511082949e-11	0.357742353304661	1.29601133774624	IQ-domain 9	1.89323194204726	2.48339	0.00288225	0.00288225
Glyma.07G204300	0.871002678229483	0.00743726215845693	6.52919005106223	10.8990848362005	P-loop containing nucleoside triphosphate hydrolases superfamily protein	0.871002678229483	0.911683	0.00288225	0.00743726215845693
Glyma.07G206300	-1.30772954859486	0.000375465958916275	9.16632281918356	3.63132358241754	Haloacid dehalogenase-like hydrolase (HAD) superfamily protein	-1.30772954859486	-1.39438	0.00288225	0.00288225
Glyma.07G210800	-0.772394130428587	0.00353326476333618	34.606189476956	19.3019886719356	RNA-binding protein 47B	-0.772394130428587	-0.792506	0.00288225	0.00353326476333618
Glyma.07G214300	-1.70609444114519	7.51522306990204e-05	1.78339540163015	0.51169768007077	plant U-box 26	-1.70609444114519	-1.64834	0.00520497	0.00520497
Glyma.07G217000	0.698178811439003	0.0205274540012823	3.01912369342251	4.60087904490304	Tetratricopeptide repeat (TPR)-like superfamily protein	0.698178811439003	0.768221	0.0372279	0.0372279
Glyma.07G258200	1.8531306588772	0.0483340724231686	70.4279126688119	212.093860780578	NAD(P)-binding Rossmann-fold superfamily protein	1.8531306588772	1.88716	0.00288225	0.0483340724231686
Glyma.08G087800	1.01664902106997	0.00743726215845693	7.35102253139228	13.6311816410272	RNA-binding (RRM/RBD/RNP motifs) family protein	1.01664902106997	1.19226	0.00288225	0.00743726215845693
Glyma.08G097900	-1.0834571612527	0.000684445430011234	4.28345219492063	1.94940090877723	TEOSINTE BRANCHED 1, cycloidea and PCF transcription factor 2	-1.0834571612527	-1.03506	0.00288225	0.00288225
Glyma.08G100000	1.13411227906376	0.0270203521531898	22.4330848043458	42.9455872581842	Ribosomal L38e protein family	1.13411227906376	1.21764	0.00288225	0.0270203521531898
Glyma.08G137600	-1.58777338094135	0.00675579165311747	4.20996240923605	1.38725712196449	Integrase-type DNA-binding superfamily protein	-1.58777338094135	-1.59854	0.00288225	0.00675579165311747
Glyma.08G175200	1.26459843609594	0.0216140788708814	110.443658764057	234.421934136005	glutathione S-transferase TAU 19	1.26459843609594	1.37076	0.00288225	0.0216140788708814
Glyma.08G194600	-0.72538222092333	0.00213687749440926	13.8450090391794	8.12877711323082	multidrug resistance-associated protein 6	-0.72538222092333	-0.668312	0.0401397	0.0401397
Glyma.08G196100	-0.632872661402909	0.0357312112204739	15.6618733339685	9.83391464966611	dentin sialophosphoprotein-related	-0.632872661402909	-0.652382	0.030608	0.0357312112204739
Glyma.08G211200	0.701583584364599	0.042141399153396	20.8239201759525	30.4029571037884	Alba DNA/RNA-binding protein	0.701583584364599	0.926983	0.0348272	0.042141399153396
Glyma.08G214300	-0.731009198347922	0.0392056755237738	35.643407589168	20.9961307753742	Inorganic H pyrophosphatase family protein	-0.731009198347922	-0.756767	0.00870113	0.0392056755237738
Glyma.08G222900	0.881358919902895	0.0391039977101902	25.7027123729444	42.3248199398977	ATP synthase epsilon chain, mitochondrial	0.881358919902895	0.953116	0.00288225	0.0391039977101902
Glyma.08G241600	-2.41931767225316	0.0392056755237738	17.6669430057974	3.37730442399969	Cyclic nucleotide-regulated ion channel family protein	-2.41931767225316	-2.20172	0.00288225	0.0392056755237738
Glyma.08G265900	0.585897788275847	0.0483820967547957	39.1187700342469	54.0467582199081	Ribosomal protein L19 family protein	0.585897788275847	0.626569	0.0436463	0.0483820967547957
Glyma.08G281300	3.23492175100437	0.0454682892551575	0.779181941975707	6.1686925446417	photosystem II reaction center protein B	3.23492175100437	3.64295	0.0387721	0.0454682892551575
Glyma.08G302100	1.96518470807748	0.0269819981394263	3.70699025041794	12.697471013426	no data	1.96518470807748	2.19064	0.0228015	0.0269819981394263
Glyma.08G316500	0.523992059525271	0.0230477105533855	13.8607684333966	18.4311502468053	calmodulin-domain protein kinase 9	0.523992059525271	0.603627	0.0485858	0.0485858
Glyma.08G316900	0.720317775739503	0.0386886908586665	7.27480109633484	10.9989902599696	syntaxin of plants 61	0.720317775739503	0.795451	0.0257404	0.0386886908586665
Glyma.08G335700	-1.17326377852837	0.0454020140254138	1.84022747429601	0.788224725009292	no data	-1.17326377852837	-1.26921	0.0415263	0.0454020140254138
Glyma.08G340600	1.1993366330733	0.0454834912923059	6.62670894946566	13.3295835905081	Cox19 family protein (CHCH motif)	1.1993366330733	1.4604	0.00288225	0.0454834912923059
Glyma.08G346600	2.41213160017593	0.0481845741915888	124.026226475851	546.052683380111	Plant EC metallothionein-like protein, family 15	2.41213160017593	2.25475	0.00288225	0.0481845741915888
Glyma.08G348200	1.37367284050502	0.015627820698933	62.2074771789268	140.025808040606	wound-responsive protein-related	1.37367284050502	1.5249	0.00288225	0.015627820698933
Glyma.09G016700	1.13967590691878	0.0157115871301054	15.8863161558919	30.7763549652193	RAB GTPase homolog B1C	1.13967590691878	1.32095	0.00288225	0.0157115871301054
Glyma.09G059800	-0.723955988499276	0.0492905790707244	44.1505275170963	25.2247427242232	chloroplast import apparatus 2	-0.723955988499276	-0.670351	0.0257404	0.0492905790707244
Glyma.09G065000	-0.990573786413502	0.000701901157156856	11.7272371278956	5.69024305880864	calmodulin-binding family protein	-0.990573786413502	-0.986545	0.00288225	0.00288225
Glyma.09G070700	0.604688100952182	0.038929193449239	9.85135514826109	13.8296671160801	NagB/RpiA/CoA transferase-like superfamily protein	0.604688100952182	0.657554	0.0480375	0.0480375
Glyma.09G083000	1.18128107618374	0.0454020140254138	19.5948425933267	39.0899355260932	no data	1.18128107618374	1.22266	0.00288225	0.0454020140254138
Glyma.09G084100	-0.860386142266016	0.0163588183767722	2.9562759045273	1.53647622504687	VPS54	-0.860386142266016	-0.951584	0.0395215	0.0395215
Glyma.09G093400	-0.69268326546113	0.0158172227339555	15.4701928532816	9.14330775540813	no data	-0.69268326546113	-0.646675	0.030608	0.030608
Glyma.09G124800	0.983235140485432	0.00281946804074469	9.30495892622935	16.6200877977811	MMS ZWEI homologue 1	0.983235140485432	1.05723	0.00288225	0.00288225
Glyma.09G155000	0.92375960884665	0.0078487698588784	2.54133570781716	4.73568137815189	RmlC-like cupins superfamily protein	0.92375960884665	1.14228	0.0314656	0.0314656
Glyma.09G161900	-1.68706617463521	0.0155598598468235	2.51652014507087	0.77151624191199	Endosomal targeting BRO1-like domain-containing protein	-1.68706617463521	-1.75747	0.00288225	0.0155598598468235
Glyma.09G176900	0.694239430843087	0.0123279801416415	4.4973901844375	6.78647381621569	Calcium-dependent lipid-binding (CaLB domain) family protein	0.694239430843087	0.786042	0.049694	0.049694
Glyma.09G207300	-1.06677393283474	0.0109285014014405	3.56157312162922	1.60498028263485	Homeodomain-like superfamily protein	-1.06677393283474	-1.32711	0.00288225	0.0109285014014405
Glyma.09G254500	-0.950859317107089	0.00166438426510281	28.6164197093366	13.7342945541562	Diacylglycerol kinase family protein	-0.950859317107089	-0.927131	0.00870113	0.00870113
Glyma.09G264600	-0.824763108091981	0.0427064535697031	12.7731256500907	6.80608037183455	ARM repeat superfamily protein	-0.824763108091981	-0.827862	0.00870113	0.0427064535697031
Glyma.09G273200	0.690783054239922	0.0320438222512107	1.59573598527556	2.44070072287497	thioredoxin H-type 9	0.690783054239922	1.69886	0.0456183	0.0456183
Glyma.10G019100	0.829673487237062	0.00101004853039901	5.29436289757331	8.81089680771388	Small nuclear ribonucleoprotein family protein	0.829673487237062	0.957108	0.00288225	0.00288225
Glyma.10G066100	-1.12854061114359	0.0481845741915888	12.4390326303381	5.3653966803019	heat shock transcription factor A3	-1.12854061114359	-1.09869	0.00288225	0.0481845741915888
Glyma.10G067600	1.66013207917005	0.0229811092403621	63.4506937455796	174.229866081772	no data	1.66013207917005	1.58931	0.00288225	0.0229811092403621
Glyma.10G093100	-1.16716449325358	0.00375168900994371	4.53215315935474	1.90908153337743	basic helix-loop-helix (bHLH) DNA-binding superfamily protein	-1.16716449325358	-1.12374	0.00288225	0.00375168900994371
Glyma.10G094400	1.0346625506243	0.00340996150533421	15.970624230348	29.5121731603359	Chaperone DnaJ-domain superfamily protein	1.0346625506243	1.20795	0.00288225	0.00340996150533421
Glyma.10G098800	1.47908281499961	0.0366333090269599	0.250461975151747	0.700938181988997	no data	1.47908281499961	1.25601	0.0408204	0.0408204
Glyma.10G127700	0.639167016551713	0.0172422364484296	5.23059142262783	7.62931839370238	RING/FYVE/PHD zinc finger superfamily protein	0.639167016551713	0.870051	0.0485858	0.0485858
Glyma.10G128100	0.647555425169082	0.0492905790707244	53.7442973436413	75.816119661084	GRIM-19 protein	0.647555425169082	0.740052	0.0228015	0.0492905790707244
Glyma.10G157100	-1.9515025983632	0.00669588901324587	2.09271760168624	0.512102243350698	thylakoid lumen 18.3 kDa protein	-1.9515025983632	-2.03823	0.0164231	0.0164231
Glyma.10G162800	-1.15707513202051	2.75250099444654e-06	10.8605195410457	4.67829334429618	DREB2A-interacting protein 2	-1.15707513202051	-1.08958	0.00288225	0.00288225
Glyma.10G190700	0.888810356343732	0.042141399153396	1.05218261762105	1.81550044407891	Tetratricopeptide repeat (TPR)-like superfamily protein	0.888810356343732	1.12781	0.00710205	0.042141399153396
Glyma.10G192900	1.04902646105492	0.0145588099103029	54.5760859264715	99.8759041251196	glutathione S-transferase TAU 15	1.04902646105492	1.10884	0.00288225	0.0145588099103029
Glyma.10G203200	1.49041823741236	0.0121460400888546	16.5706501741808	40.2125690352701	homolog of anti-oxidant 1	1.49041823741236	1.73736	0.00288225	0.0121460400888546
Glyma.10G214500	2.87628155200848	0.042897897999673	6.65487146442225	40.2543433882314	no data	2.87628155200848	2.91995	0.00288225	0.042897897999673
Glyma.10G218200	0.838379922798281	0.0493489547832785	18.9066973962923	30.2439552976431	Exostosin family protein	0.838379922798281	1.02456	0.00288225	0.0493489547832785
Glyma.10G250500	-0.805181469111959	0.0200690701778064	10.7909067330192	5.9588600868571	Homeotic gene regulator	-0.805181469111959	-0.839619	0.00520497	0.0200690701778064
Glyma.10G290500	-1.31683235872097	0.0490684992883296	3.02645573424648	1.16263709687749	F-box family protein	-1.31683235872097	-1.31798	0.00288225	0.0490684992883296
Glyma.11G011200	1.07240342061405	0.029279067516714	8.96928004520586	16.9244088657216	NADH:ubiquinone oxidoreductase, 17.2kDa subunit	1.07240342061405	1.13323	0.0415263	0.0415263
Glyma.11G043400	-1.26017185193574	0.0403202364960441	17.1179602959634	7.00485614132406	no data	-1.26017185193574	-1.29181	0.00288225	0.0403202364960441
Glyma.11G053600	1.27127978171005	0.0493489547832785	51.0235469075872	106.440025258095	DREB and EAR motif protein 2	1.27127978171005	1.26965	0.00288225	0.0493489547832785
Glyma.11G067600	0.907615894599505	0.0492659138217418	5.44624459804404	9.5743254427372	no data	0.907615894599505	0.970728	0.0443423	0.0492659138217418
Glyma.11G081200	-0.662197006346591	0.0216140788708814	18.9005751293688	11.5950243412601	RNA polymerase II large subunit	-0.662197006346591	-0.678831	0.0297606	0.0297606
Glyma.11G088100	1.3478813226841	0.0275713007419616	1.73051646294999	4.0922066801084	no data	1.3478813226841	1.87129	0.00288225	0.0275713007419616
Glyma.11G090400	0.814882181382704	0.0205274540012823	5.66970883430065	9.32952549671818	SWIB/MDM2 domain superfamily protein	0.814882181382704	1.0217	0.015259	0.0205274540012823
Glyma.11G141600	1.11802562322899	0.0197570442014805	8.36497996674753	16.1199345752669	Histone superfamily protein	1.11802562322899	1.12054	0.00288225	0.0197570442014805
Glyma.11G142100	0.84321371471552	0.0230477105533855	7.63220232119023	12.4593280874913	Histone superfamily protein	0.84321371471552	0.829189	0.00710205	0.0230477105533855
Glyma.11G178100	1.37091008563014	0.00928058238388673	0.794418434405359	1.95970068178465	Histone superfamily protein	1.37091008563014	1.49572	0.0277648	0.0277648
Glyma.11G220200	0.654864482973979	0.0273919097769436	15.8855623522195	22.5218817300993	RING/U-box superfamily protein	0.654864482973979	0.772881	0.00710205	0.0273919097769436
Glyma.11G234600	-0.668373826596992	0.0468115539413288	8.62424268622265	5.12548100377189	Transmembrane amino acid transporter family protein	-0.668373826596992	-0.706887	0.0365065	0.0468115539413288
Glyma.12G018600	0.680288077763356	0.0366063190532061	4.11409133513318	6.14640300471605	ADP-ribosylation factor B1B	0.680288077763356	0.911698	0.0257404	0.0366063190532061
Glyma.12G032700	0.684732546737449	0.0468358445407184	31.809136748331	46.2124169612568	RAC-like 3	0.684732546737449	0.773034	0.00520497	0.0468358445407184
Glyma.12G047500	-0.717415357336877	0.0409075252391498	36.725297630925	21.843214158699	cold regulated 413 plasma membrane 1	-0.717415357336877	-0.624817	0.042378	0.042378
Glyma.12G065100	0.807835074490781	0.0224244518279164	8.89939841496534	14.1208621086467	Histone superfamily protein	0.807835074490781	0.791626	0.030608	0.030608
Glyma.12G065400	1.14829003950228	0.0168022124755397	5.36170136078203	10.7008878976066	Histone superfamily protein	1.14829003950228	1.10191	0.00710205	0.0168022124755397
Glyma.12G129900	1.23387363830546	0.0109552102162088	5.3085060209262	10.9841006663753	no data	1.23387363830546	1.27389	0.00288225	0.0109552102162088
Glyma.12G130000	1.54216648761514	0.0148058695085047	0.545412595359884	1.52415695771741	DNAJ heat shock N-terminal domain-containing protein	1.54216648761514	1.49602	0.0287571	0.0287571
Glyma.12G132500	7.42700442656115	7.50535594537776e-11	0.0040381092946374	1.3776199050141	UDP-Glycosyltransferase superfamily protein	7.42700442656115	8.89769	0.0128304	0.0128304
Glyma.12G135100	1.36936364173593	1.31857828457768e-08	545.196446393018	1277.56322962181	Translation initiation factor SUI1 family protein	1.36936364173593	1.50959	0.0116455	0.0116455
Glyma.12G136600	0.937715113408038	0.0194335332989694	1.07963426284389	1.952399502353	kinesin 3	0.937715113408038	0.926343	0.0431394	0.0431394
Glyma.12G139000	-0.698171558102878	0.028364450887612	22.6749664182531	13.3410009006149	organic cation/carnitine transporter4	-0.698171558102878	-0.690482	0.0102027	0.028364450887612
Glyma.12G141900	3.00979103781682	1.04627029137468e-10	1.88569638350252	13.7963935561311	flavodoxin-like quinone reductase 1	3.00979103781682	3.07826	0.00288225	0.00288225
Glyma.12G147400	-1.39848177663899	1.82858541860289e-08	11.3868764385414	4.133264845842	ARF-GAP domain 5	-1.39848177663899	-1.60542	0.00288225	0.00288225
Glyma.12G162800	0.85480556970704	0.0414831982680611	8.54319355369938	14.1442751325537	Yippee family putative zinc-binding protein	0.85480556970704	0.948639	0.0195662	0.0414831982680611
Glyma.12G181200	1.919360160378	0.0107294126990764	0.945167592368314	3.1166205297353	no data	1.919360160378	1.67561	0.00520497	0.0107294126990764
Glyma.12G182000	0.946629377100084	0.0224244518279164	43.2821835528993	73.9153411570396	Ribosomal protein L24e family protein	0.946629377100084	1.02371	0.00288225	0.0224244518279164
Glyma.12G184600	0.793748179184337	0.0103414521462451	6.9101080051245	10.9877216713065	no data	0.793748179184337	1.03874	0.00288225	0.0103414521462451
Glyma.12G197700	1.17417151741034	0.0167760954627327	8.94770571737301	17.867965249965	Integrase-type DNA-binding superfamily protein	1.17417151741034	1.30815	0.00288225	0.0167760954627327
Glyma.12G232000	2.93979479306086	0.022648865922465	0.910693602002381	5.89018585357317	ATP synthase subunit alpha	2.93979479306086	3.01556	0.00288225	0.022648865922465
Glyma.12G232300	4.09556135261238	0.0230477105533855	0.232180174380109	3.36460758926786	ribosomal protein L33	4.09556135261238	4.16776	0.00288225	0.0230477105533855
Glyma.12G242000	1.04386613470902	0.0390922405850031	69.0465421299895	122.909192151581	Thioredoxin superfamily protein	1.04386613470902	1.2484	0.00288225	0.0390922405850031
Glyma.13G000600	0.682288686523027	0.0040905945958599	7.89335154852385	11.797426208724	translocase of the inner mitochondrial membrane 13	0.682288686523027	0.81918	0.0297606	0.0297606
Glyma.13G020300	0.948555475974044	0.0134342184665983	612.309809041416	1113.55741830977	no data	0.948555475974044	1.33866	0.0102027	0.0134342184665983
Glyma.13G028200	2.44998016274512	0.0474785170660062	1.11292657944728	5.54450538590421	photosystem II reaction center protein A	2.44998016274512	2.21146	0.00288225	0.0474785170660062
Glyma.13G068600	4.01645573025198	0.0318138454742097	0.399518497633906	5.43915538311508	NADH:ubiquinone/plastoquinone oxidoreductase, chain 3 protein	4.01645573025198	4.10944	0.00288225	0.0318138454742097
Glyma.13G109300	0.883827535923315	0.0158131882579841	1.95238117509299	3.37922751009781	TATA-binding related factor (TRF) of subunit 20 of Mediator complex	0.883827535923315	1.15259	0.0195662	0.0195662
Glyma.13G147100	-0.771524001651044	0.03799763483956	13.0815593598378	7.4986035317155	Acyl-CoA N-acyltransferase with RING/FYVE/PHD-type zinc finger domain	-0.771524001651044	-0.822319	0.00288225	0.03799763483956
Glyma.13G171200	2.37382274504696	1.90133281826167e-11	1.41003705776992	7.14288544072034	no data	2.37382274504696	2.27549	0.00288225	0.00288225
Glyma.13G175100	-0.630463824964348	0.00941664773459376	25.3595286977531	15.7088700380896	Glucose-6-phosphate/phosphate translocator-related	-0.630463824964348	-0.606413	0.0456183	0.0456183
Glyma.13G188000	0.701958701630611	0.000375465958916275	12.7083147255318	19.2589774336363	no data	0.701958701630611	0.915198	0.0228015	0.0228015
Glyma.13G196100	1.30187982774719	0.0270975562593039	0.516162988598081	1.26568780250606	GPI transamidase component Gpi16 subunit family protein	1.30187982774719	1.22527	0.00288225	0.0270975562593039
Glyma.13G199300	-1.20919855400582	0.00385497350222145	1.91742031842062	0.790778045792856	no data	-1.20919855400582	-1.19739	0.00710205	0.00710205
Glyma.13G208400	-0.629414982460551	0.0205274540012823	8.35046767682874	5.1503235611375	Heavy metal transport/detoxification superfamily protein 	-0.629414982460551	-0.694002	0.0238434	0.0238434
Glyma.13G214900	-1.2150408785656	0.00413227655856366	18.0617563017715	7.53001719587728	tubby like protein 3	-1.2150408785656	-1.24814	0.00288225	0.00413227655856366
Glyma.13G231400	-1.46879912546281	0.0168022124755397	15.2498808687921	5.61851530977609	GDSL-like Lipase/Acylhydrolase superfamily protein	-1.46879912546281	-1.54366	0.00288225	0.0168022124755397
Glyma.13G310100	-0.750331224157982	0.0291958651100471	16.772991335451	9.57113172816484	WRKY family transcription factor	-0.750331224157982	-0.752618	0.0128304	0.0291958651100471
Glyma.13G328600	-0.714579014289045	0.0321824672224358	2.50904286737527	1.48637753543296	carbamoyl phosphate synthetase B	-0.714579014289045	-0.80929	0.030608	0.0321824672224358
Glyma.13G335300	-1.56845251841976	0.0454834912923059	3.96151215850903	1.29343684366762	XB3 ortholog 1 in Arabidopsis thaliana	-1.56845251841976	-1.51441	0.00288225	0.0454834912923059
Glyma.14G003400	-1.21298926070957	0.0471586484162556	4.6506460451722	1.95678839642607	photosystem I light harvesting complex gene 3	-1.21298926070957	-1.6312	0.0332212	0.0471586484162556
Glyma.14G024100	-1.06179457412214	0.0237746724352037	2.68431764360604	1.21244572565738	no data	-1.06179457412214	-1.08029	0.00870113	0.0237746724352037
Glyma.14G037200	0.975902915752923	0.0202621049575331	8.33967199147082	14.7419763157237	plectin-related	0.975902915752923	1.04527	0.00288225	0.0202621049575331
Glyma.14G038100	1.98752960277099	0.0349874815727447	68.7381237009627	239.277610586925	no data	1.98752960277099	1.95446	0.00288225	0.0349874815727447
Glyma.14G039000	0.79600466891068	0.0270203521531898	12.5850338154965	19.5561257587265	RING-H2 finger C1A	0.79600466891068	0.844059	0.00520497	0.0270203521531898
Glyma.14G050500	1.68753289982538	0.0493489547832785	71.6090977527663	200.978013315697	no data	1.68753289982538	1.69002	0.00288225	0.0493489547832785
Glyma.14G070000	1.29371052456688	0.0220451479498515	1.87339348293959	4.07819350362022	Integrase-type DNA-binding superfamily protein	1.29371052456688	1.34183	0.00288225	0.0220451479498515
Glyma.14G086600	1.55879841562531	0.0263982767483183	0.571056024056293	1.62082971448385	F-box family protein	1.55879841562531	1.73483	0.0408204	0.0408204
Glyma.14G090800	1.40802455506995	0.0038967264501649	3.54617337207253	8.33175222636926	embryo defective 1273	1.40802455506995	1.46254	0.00288225	0.0038967264501649
Glyma.14G094800	-1.21126686720407	0.0269828642699148	5.45545471286734	2.27111467429148	cytokinin-responsive gata factor 1	-1.21126686720407	-1.2326	0.0102027	0.0269828642699148
Glyma.14G134200	0.835415576556062	0.0303357435835349	12.280849926074	19.7057035406684	deletion of SUV3 suppressor 1(I)	0.835415576556062	1.12991	0.00288225	0.0303357435835349
Glyma.14G138300	-1.0431518373726	0.0426300418049553	6.64018011658659	3.13502918314718	arabinose kinase	-1.0431518373726	-0.944455	0.0128304	0.0426300418049553
Glyma.14G176700	0.820775172182328	0.015627820698933	5.67404349290001	9.575153958392	Protein kinase superfamily protein	0.820775172182328	0.948067	0.00288225	0.015627820698933
Glyma.14G179300	0.774696152794489	0.0363048051646057	10.1452240161667	15.9803165464033	Mitochondrial substrate carrier family protein	0.774696152794489	0.832714	0.00520497	0.0363048051646057
Glyma.14G190800	0.631911827861458	0.0366333090269599	6.45695755937811	9.20470940345019	Histone superfamily protein	0.631911827861458	0.681027	0.0387721	0.0387721
Glyma.14G201500	-0.782207898225197	0.000583789920782435	54.9374338128006	30.8940359673845	translocon at the inner envelope membrane of chloroplasts 110	-0.782207898225197	-0.765055	0.017325	0.017325
Glyma.14G207600	0.979001897957219	0.0494475075712186	22.7314067465345	39.108706673907	Cystathionine beta-synthase (CBS) family protein	0.979001897957219	1.13666	0.00288225	0.0494475075712186
Glyma.15G005800	0.938632029097277	0.0414155478621263	3.75171984469256	6.42101065784022	Sterile alpha motif (SAM) domain-containing protein	0.938632029097277	1.03098	0.00710205	0.0414155478621263
Glyma.15G009100	1.59594925057411	0.00599458656646867	1.12558709273843	3.21848473876554	Putative thiol-disulphide oxidoreductase DCC	1.59594925057411	1.89383	0.049694	0.049694
Glyma.15G022500	1.82176481101759	0.00743726215845693	10.4559863974908	31.6115318611346	F-box/RNI-like superfamily protein	1.82176481101759	1.92944	0.00288225	0.00743726215845693
Glyma.15G043200	1.21723837939999	0.00856742764249382	17.0847392466295	34.9316748323103	Histone superfamily protein	1.21723837939999	1.1651	0.00288225	0.00856742764249382
Glyma.15G055100	0.68098129670932	0.019756076109409	30.7025950918647	44.7899880228951	centrin2	0.68098129670932	0.749833	0.0139958	0.019756076109409
Glyma.15G097300	-0.935043980226879	0.0142886118536926	24.3289985404985	12.1612940646714	CHY-type/CTCHY-type/RING-type Zinc finger protein	-0.935043980226879	-0.990354	0.00288225	0.0142886118536926
Glyma.15G146300	1.83607764742704	0.0490658668112363	0.481600001443214	1.63872280363438	no data	1.83607764742704	1.88072	0.0401397	0.0490658668112363
Glyma.15G165900	1.12057992065082	0.0091398215784714	20.1461732727585	38.6652485765022	no data	1.12057992065082	1.30157	0.00288225	0.0091398215784714
Glyma.15G187700	0.970069384703452	0.0318138454742097	0.967028352862238	1.74752714861644	no data	0.970069384703452	0.936976	0.0257404	0.0318138454742097
Glyma.15G223400	1.86802730855228	0.0220451479498515	54.0461456422055	170.305520219865	no data	1.86802730855228	1.50018	0.0164231	0.0220451479498515
Glyma.15G243400	2.03192806777731	4.01635767356102e-07	0.421586584273516	1.59178829952373	cytochrome P450, family 72, subfamily A, polypeptide 7	2.03192806777731	1.95647	0.00288225	0.00288225
Glyma.15G248600	3.31812851226528	0.0263982767483183	0.701120756494208	5.9776325551029	photosystem II reaction center protein K precursor	3.31812851226528	3.052	0.0139958	0.0263982767483183
Glyma.15G259800	1.59084793398292	0.0142886118536926	1.53389328757614	4.17031828273955	no data	1.59084793398292	1.83226	0.0380457	0.0380457
Glyma.15G271700	0.968991837657624	0.0359876424199899	39.0195278605347	67.4514525508369	Thioredoxin superfamily protein	0.968991837657624	1.00054	0.00288225	0.0359876424199899
Glyma.16G040400	1.3334873402505	0.0148267824577009	2.14969043042305	4.9363800330192	arabinogalactan protein 14	1.3334873402505	1.43162	0.00288225	0.0148267824577009
Glyma.16G049000	-1.17352127205993	0.00935663065894431	37.4529802388155	15.9886727927524	CCR-like	-1.17352127205993	-1.10609	0.00288225	0.00935663065894431
Glyma.16G050300	-2.82114742653793	0.0106228886262154	1.13263597084753	0.143576110746758	AP2/B3-like transcriptional factor family protein	-2.82114742653793	-2.94207	0.00520497	0.0106228886262154
Glyma.16G065300	5.14880883820084	0.00375168900994371	0.205736714797817	6.16742374958574	Chloroplast Ycf2;ATPase, AAA type, core	5.14880883820084	5.32885	0.00288225	0.00375168900994371
Glyma.16G124800	1.23413916497857	0.0270975562593039	49.8268435145012	101.18903891204	no data	1.23413916497857	1.60779	0.00288225	0.0270975562593039
Glyma.16G142800	-1.00045485710074	0.000993020240998855	21.5716999754969	10.6585454238568	BEL1-like homeodomain 2	-1.00045485710074	-1.02483	0.00288225	0.00288225
Glyma.16G205400	1.99285103459696	0.00198942356451722	0.411375343509771	1.63701883281385	RmlC-like cupins superfamily protein	1.99285103459696	2.29934	0.0257404	0.0257404
Glyma.16G206500	0.712600110209769	0.042897897999673	15.096262221647	22.3662772190798	Ribosomal protein L2 family	0.712600110209769	0.904835	0.00288225	0.042897897999673
Glyma.17G004400	0.672124319182276	0.0413376938130265	5.14642072794386	7.58742397273305	calcineurin B-like 3	0.672124319182276	0.776585	0.0395215	0.0413376938130265
Glyma.17G021800	-1.16303138631327	0.0492659138217418	16.3843447575431	7.08355969450374	Deoxyxylulose-5-phosphate synthase	-1.16303138631327	-1.25428	0.00288225	0.0492659138217418
Glyma.17G025600	0.66827040761914	0.046841717782323	36.7942579895919	51.9696958741675	Mitochondrial substrate carrier family protein	0.66827040761914	0.759748	0.0128304	0.046841717782323
Glyma.17G040600	1.17465348165303	0.0490558904374148	31.8098947669286	63.9018604056727	no data	1.17465348165303	1.70986	0.00288225	0.0490558904374148
Glyma.17G059100	-1.04058637559602	0.00642173057475864	6.18499332361889	2.9152998932083	chloroplast import apparatus 2	-1.04058637559602	-1.03289	0.00288225	0.00642173057475864
Glyma.17G079100	0.582864346463273	0.00769051115484767	18.6075119619731	26.1201308971042	mitochondrial import receptor subunit TOM5 homolog	0.582864346463273	0.828088	0.017325	0.017325
Glyma.17G086500	2.11548814131628	0.00675579165311747	1.43346395135687	5.33911947342639	tryptophan aminotransferase related 2	2.11548814131628	2.16413	0.00288225	0.00675579165311747
Glyma.17G086600	0.706968949982402	0.0349874815727447	6.53003807461035	9.72538941146203	FKBP12 interacting protein 37	0.706968949982402	0.829263	0.0102027	0.0349874815727447
Glyma.17G109000	0.76259541599023	0.0366333090269599	9.12028186635022	14.0106960743192	no data	0.76259541599023	0.765544	0.0314656	0.0366333090269599
Glyma.17G124400	1.06437431141943	0.0485278388939704	37.6314207956032	68.4110015775608	drought-induced 19	1.06437431141943	1.162	0.00288225	0.0485278388939704
Glyma.17G129200	-0.721931032116349	0.0359876424199899	20.52869499717	12.1388943648942	AAA-type ATPase family protein	-0.721931032116349	-0.672245	0.0485858	0.0485858
Glyma.17G153700	1.13353149123308	0.00127935239752602	5.56948078643363	11.0371725832492	ubiquitin family protein	1.13353149123308	1.0416	0.0102027	0.0102027
Glyma.17G160400	1.36599126048246	0.0288257023401349	30.3860266427779	67.2318076207647	NADH-ubiquinone oxidoreductase-related	1.36599126048246	1.58828	0.00288225	0.0288257023401349
Glyma.17G168900	-0.966796337955797	0.0124257612365103	21.2196576507432	10.4653379153974	WRKY DNA-binding protein 15	-0.966796337955797	-0.963547	0.00288225	0.0124257612365103
Glyma.17G185800	1.08273385630906	0.0413974959119835	15.1151099548162	29.0903498445449	NADH dehydrogenase 5B	1.08273385630906	1.03133	0.00288225	0.0413974959119835
Glyma.17G207100	0.963836464851382	0.0142886118536926	10.8149674653099	18.9313200576264	histone H2A protein 9	0.963836464851382	1.24399	0.00288225	0.0142886118536926
Glyma.17G211900	-0.733655236978013	0.041199681863554	8.67631940520668	4.99381021970915	Myosin heavy chain-related protein	-0.733655236978013	-0.759446	0.0102027	0.041199681863554
Glyma.17G254200	1.00511363615472	0.00650516214077052	3.8811478383471	7.23476755408957	thioredoxin H-type 1	1.00511363615472	1.03852	0.00288225	0.00650516214077052
Glyma.17G254600	1.01177882200217	0.0136969400899636	1.6292317488632	3.02530098780861	Integrase-type DNA-binding superfamily protein	1.01177882200217	1.06129	0.0102027	0.0136969400899636
Glyma.17G255500	-0.80356467848853	0.0380338247941067	9.02554754148335	5.15133494678163	LSD1-like 3	-0.80356467848853	-0.879444	0.00288225	0.0380338247941067
Glyma.18G004900	-0.827887461664829	0.0257937307684384	47.6649074733112	25.2632176496179	no data	-0.827887461664829	-0.748023	0.00870113	0.0257937307684384
Glyma.18G015300	1.02362639814634	0.0122496995834485	73.259529301654	130.570175564814	Histone superfamily protein	1.02362639814634	0.986126	0.00288225	0.0122496995834485
Glyma.18G029800	0.751772138466285	0.00928058238388673	19.2831929743065	29.3610790824961	RP non-ATPase subunit 8A	0.751772138466285	0.832583	0.00288225	0.00928058238388673
Glyma.18G061100	-1.11833199311823	0.000322615869549629	25.336668203236	10.7436203885624	glutamine-dependent asparagine synthase 1	-1.11833199311823	-1.10754	0.00288225	0.00288225
Glyma.18G109000	1.41041621740395	0.00159063340411619	0.72887391720896	1.87697144691462	no data	1.41041621740395	1.26197	0.0268428	0.0268428
Glyma.18G111500	1.97019036271229	0.00935663065894431	8.45024716641269	28.788631474567	no data	1.97019036271229	1.90028	0.00288225	0.00935663065894431
Glyma.18G112400	1.24676069264384	0.0202995900894551	0.481969519358718	1.09911904400619	Mitochondrial transcription termination factor family protein	1.24676069264384	1.39019	0.0277648	0.0277648
Glyma.18G116900	-1.85303514994624	0.0185251854310666	15.4443313815337	4.24153110856253	alanine:glyoxylate aminotransferase	-1.85303514994624	-1.97252	0.00288225	0.0185251854310666
Glyma.18G146300	5.28145238683361	0.0359876424199899	0.0122175814770146	0.616082760912722	NADH dehydrogenase family protein	5.28145238683361	6.29947	0.017325	0.0359876424199899
Glyma.18G150000	-0.930081641866772	0.00127935239752602	13.5444150142752	6.91486426143986	serine transhydroxymethyltransferase 1	-0.930081641866772	-0.996751	0.00288225	0.00288225
Glyma.18G155800	2.83108453187459	0.0446764771953316	0.407209751361016	2.41583208797559	Ycf1 protein	2.83108453187459	2.66672	0.0456183	0.0456183
Glyma.18G159800	0.631297482876555	0.0270203521531898	69.3388180600427	97.2402743391203	wound-responsive protein-related	0.631297482876555	1.04807	0.00288225	0.0270203521531898
Glyma.18G165200	1.33260192703167	0.000828988582635784	4.45464259063337	10.2154879476447	small ubiquitin-like modifier 2	1.33260192703167	1.44743	0.00288225	0.00288225
Glyma.18G203700	6.45499206703407	0.037641736105931	0	3.10686771178616	chloroplast ribosomal protein S4	6.45499206703407	Inf	0.00288225	0.037641736105931
Glyma.18G208800	-1.03654433655349	0.0216140788708814	1.65664763155802	0.772104392081881	WRKY DNA-binding protein 33	-1.03654433655349	-1.00806	0.030608	0.030608
Glyma.18G229900	0.678747006265744	0.0377149645545983	7.19534991808955	10.6229843931617	Amino acid dehydrogenase family protein	0.678747006265744	0.739057	0.0249726	0.0377149645545983
Glyma.18G239900	-0.662641669096892	0.0062880200200433	7.27269152014931	4.41215000886161	cytochrome P450, family 97, subfamily A, polypeptide 3	-0.662641669096892	-0.692824	0.045027	0.045027
Glyma.19G018100	0.789685696286856	0.03799763483956	4.83425030733797	7.68581994295995	Oxoglutarate/iron-dependent oxygenase	0.789685696286856	1.00735	0.00288225	0.03799763483956
Glyma.19G033200	0.689650598087548	0.0411996450852883	8.54022209291328	12.5117093904822	no data	0.689650598087548	0.836258	0.017325	0.0411996450852883
Glyma.19G045500	0.935703201956604	0.0291213911753621	7.15225045246046	12.6120151543751	RNApolymerase 14 kDa subunit	0.935703201956604	1.14454	0.0102027	0.0291213911753621
Glyma.19G075600	1.00342657083113	0.0339085028746207	9.41540171544295	16.7521622397377	Thioredoxin superfamily protein	1.00342657083113	1.28022	0.00288225	0.0339085028746207
Glyma.19G077300	-0.975598196062834	0.00375168900994371	10.7981203345858	5.18767698164766	glucose-6-phosphate dehydrogenase 6	-0.975598196062834	-0.998636	0.00288225	0.00375168900994371
Glyma.19G131600	0.81855280222613	0.0216140788708814	11.527760896562	18.4082491431781	Tetratricopeptide repeat (TPR)-like superfamily protein	0.81855280222613	0.978748	0.00520497	0.0216140788708814
Glyma.19G154100	0.731092040790481	0.0252559300609052	7.0762672144735	10.7333899056791	glutathione peroxidase 4	0.731092040790481	0.801274	0.0380457	0.0380457
Glyma.19G159100	1.01012506766996	0.0389520375790491	9.55921647931192	17.9028575454931	NIMA-related kinase 4	1.01012506766996	1.02394	0.00288225	0.0389520375790491
Glyma.19G161200	0.995326662080434	0.0335456844022233	0.802470722651367	1.53089091128948	P-loop containing nucleoside triphosphate hydrolases superfamily protein	0.995326662080434	1.07178	0.0268428	0.0335456844022233
Glyma.19G164300	-1.41596531589258	0.0490684992883296	2.11276318527283	0.786030278572321	phosphate transporter 1;7	-1.41596531589258	-1.48821	0.00288225	0.0490684992883296
Glyma.19G164800	2.56891031845168	0.0015243914713291	0.726627476314681	3.6705229371409	cruciferin 3	2.56891031845168	2.55324	0.00288225	0.00288225
Glyma.19G173500	0.585627164730264	0.0145673251673802	18.7068471043831	25.9063098230761	no data	0.585627164730264	0.694339	0.0218077	0.0218077
Glyma.19G236400	0.670718646335554	0.0490684992883296	76.0291023729281	109.054819778386	nuclear factor Y, subunit C9	0.670718646335554	0.700072	0.0387721	0.0490684992883296
Glyma.19G239200	0.73184045360543	0.015627820698933	24.5673433943018	36.9184821177092	gamma histone variant H2AX	0.73184045360543	0.894696	0.00288225	0.015627820698933
Glyma.20G079100	0.883179526346463	0.00469195361042506	2.96101689704623	5.1087123886363	RING/FYVE/PHD zinc finger superfamily protein	0.883179526346463	1.17453	0.00520497	0.00520497
Glyma.20G079400	0.834468398713936	0.0243156286670567	21.8680120174588	35.0239272669841	GRIM-19 protein	0.834468398713936	0.801427	0.0401397	0.0401397
Glyma.20G082000	1.2618675002034	0.000318453747842197	1.83624108368032	4.21209284823227	no data	1.2618675002034	1.48997	0.0324058	0.0324058
Glyma.20G083800	1.10762761836478	0.029279067516714	1.28429477681328	2.61333368093617	histone H4	1.10762761836478	1.15206	0.0314656	0.0314656
Glyma.20G121600	0.962002701614677	0.0263982767483183	8.46199961998349	14.6904861231922	Ubiquitin-like superfamily protein	0.962002701614677	1.05661	0.00288225	0.0263982767483183
Glyma.20G141700	1.04125020774505	0.0287705579130303	12.7840685320646	23.3464814299978	postsynaptic protein-related	1.04125020774505	1.10291	0.0387721	0.0387721
Glyma.20G144400	-1.17157226935139	0.0225839695833707	15.8521000320719	6.84833967578775	time for coffee	-1.17157226935139	-1.22153	0.00288225	0.0225839695833707
Glyma.20G149100	-0.96229054556239	0.00432708678365623	7.92916300988914	3.85620537808995	Tesmin/TSO1-like CXC domain-containing protein	-0.96229054556239	-0.963133	0.00288225	0.00432708678365623
Glyma.20G187100	0.856651993989622	0.0366333090269599	9.57035395246295	15.6998878174037	homolog of anti-oxidant 1	0.856651993989622	1.16948	0.00288225	0.0366333090269599
Glyma.U007200	1.05110436658184	0.00282516641063904	546.128302343841	1064.70578811804	no data	1.05110436658184	1.2381	0.00288225	0.00288225
Glyma.U009000	4.84334364885827	0.0124257612365103	0.322586631665144	8.03313686410541	ribosomal protein L23.1	4.84334364885827	4.82782	0.00288225	0.0124257612365103
Glyma.U024300	1.01002410460155	0.0454020140254138	2.7431447503374	5.04599187607677	Cyclophilin-like peptidyl-prolyl cis-trans isomerase family protein	1.01002410460155	1.70833	0.00520497	0.0454020140254138
