"category"	"numDEInCat"	"numUpInCat"	"numInCat"	"percent_up"	"percent_de"	"over.fdr"	"under.fdr"	"MajorType"	"term"
"GO:0005673"	2	2	2	100	100	0.0650571767473879	1	"cc"	"transcription factor TFIIE complex"
"GO:0005986"	2	2	2	100	100	0.0650571767473879	1	"bp"	"sucrose biosynthetic process"
"GO:0009405"	2	2	2	100	100	0.0650571767473879	1	"bp"	"pathogenesis"
"GO:0050307"	2	2	2	100	100	0.0650571767473879	1	"mf"	"sucrose-phosphate phosphatase activity"
"GO:0008061"	3	3	4	100	75	0.0129376847591486	1	"mf"	"chitin binding"
"GO:0009611"	5	5	8	100	62.5	0.000270332860426066	1	"bp"	"response to wounding"
"GO:0015930"	5	1	8	20	62.5	0.0520531265825706	1	"mf"	"glutamate synthase activity"
"GO:0004867"	8	8	19	100	42.1	1.18975000381332e-05	1	"mf"	"serine-type endopeptidase inhibitor activity"
"GO:0009064"	9	1	51	11.1	17.6	0.0402081167689768	1	"bp"	"glutamine family amino acid metabolic process"
"GO:0004866"	10	10	60	100	16.7	0.00280928090216542	1	"mf"	"endopeptidase inhibitor activity"
"GO:0030414"	10	10	60	100	16.7	0.00280928090216542	1	"mf"	"peptidase inhibitor activity"
"GO:0061134"	10	10	60	100	16.7	0.00280928090216542	1	"mf"	"peptidase regulator activity"
"GO:0061135"	10	10	60	100	16.7	0.00280928090216542	1	"mf"	"endopeptidase regulator activity"
"GO:0031967"	11	7	88	63.6	12.5	0.0407685428690774	1	"cc"	"organelle envelope"
"GO:0031975"	11	7	89	63.6	12.4	0.0432614427820231	1	"cc"	"envelope"
"GO:0005739"	10	10	95	100	10.5	0.0787227238005972	1	"cc"	"mitochondrion"
"GO:0003735"	47	44	490	93.6	9.6	3.45118243029222e-08	1	"mf"	"structural constituent of ribosome"
"GO:0005840"	47	44	490	93.6	9.6	3.45118243029222e-08	1	"cc"	"ribosome"
"GO:0030529"	50	47	540	94	9.3	3.45118243029222e-08	1	"cc"	"ribonucleoprotein complex"
"GO:0005198"	53	46	578	86.8	9.2	5.97567920311482e-08	1	"mf"	"structural molecule activity"
"GO:0043228"	56	46	702	82.1	8	8.73581781197692e-06	1	"cc"	"non-membrane-bounded organelle"
"GO:0043232"	56	46	702	82.1	8	8.73581781197692e-06	1	"cc"	"intracellular non-membrane-bounded organelle"
"GO:0006412"	51	47	665	92.2	7.7	8.95691169500195e-06	1	"bp"	"translation"
"GO:0044444"	78	61	1015	78.2	7.7	3.45118243029222e-08	1	"cc"	"cytoplasmic part"
"GO:0005737"	101	82	1371	81.2	7.4	1.12581775970108e-09	1	"cc"	"cytoplasm"
"GO:0043226"	159	95	2211	59.7	7.2	4.32595517765692e-11	1	"cc"	"organelle"
"GO:0043229"	159	95	2211	59.7	7.2	4.32595517765692e-11	1	"cc"	"intracellular organelle"
"GO:0019001"	28	18	397	64.3	7.1	0.0520531265825706	1	"mf"	"guanyl nucleotide binding"
"GO:0044422"	45	25	635	55.6	7.1	0.0377402496993808	1	"cc"	"organelle part"
"GO:0044446"	45	25	635	55.6	7.1	0.0377402496993808	1	"cc"	"intracellular organelle part"
"GO:0005525"	27	18	386	66.7	7	0.0587277652248203	1	"mf"	"GTP binding"
"GO:0032561"	27	18	386	66.7	7	0.0587277652248203	1	"mf"	"guanyl ribonucleotide binding"
"GO:0005634"	83	35	1237	42.2	6.7	0.00104820043364945	1	"cc"	"nucleus"
"GO:0043227"	105	50	1581	47.6	6.6	2.29711161474277e-05	1	"cc"	"membrane-bounded organelle"
"GO:0043231"	105	50	1581	47.6	6.6	2.29711161474277e-05	1	"cc"	"intracellular membrane-bounded organelle"
"GO:0032991"	110	70	1704	63.6	6.5	8.73581781197692e-06	1	"cc"	"macromolecular complex"
"GO:0044424"	188	110	3025	58.5	6.2	4.6032653467263e-09	1	"cc"	"intracellular part"
"GO:0005622"	196	112	3331	57.1	5.9	4.99052618042698e-08	1	"cc"	"intracellular"
"GO:0005623"	202	113	3497	55.9	5.8	1.78729398943767e-07	1	"cc"	"cell"
"GO:0044464"	202	113	3497	55.9	5.8	1.78729398943767e-07	1	"cc"	"cell part"
"GO:0009059"	146	84	2817	57.5	5.2	0.0109290836582899	1	"bp"	"macromolecule biosynthetic process"
"GO:0034645"	146	84	2809	57.5	5.2	0.0100629275380951	1	"bp"	"cellular macromolecule biosynthetic process"
"GO:0010467"	139	81	2737	58.3	5.1	0.0186389570812261	1	"bp"	"gene expression"
"GO:1901576"	179	106	3529	59.2	5.1	0.00280928090216542	1	"bp"	"organic substance biosynthetic process"
"GO:0044249"	172	99	3413	57.6	5	0.00679751127485701	1	"bp"	"cellular biosynthetic process"
"GO:0009058"	184	110	3799	59.8	4.8	0.0186389570812261	1	"bp"	"biosynthetic process"
"GO:0005575"	274	148	6044	54	4.5	0.0650571767473879	1	"cc"	"cellular_component"
"GO:0000166"	157	NA	4531	NA	3.5	1	0.0100872572182926	"mf"	"nucleotide binding"
"GO:0036094"	160	NA	4599	NA	3.5	1	0.0126328807623476	"mf"	"small molecule binding"
"GO:0097367"	141	NA	4085	NA	3.5	1	0.0150166756427939	"mf"	"carbohydrate derivative binding"
"GO:1901265"	157	NA	4531	NA	3.5	1	0.0100872572182926	"mf"	"nucleoside phosphate binding"
"GO:0001883"	135	NA	4029	NA	3.4	1	0.00461714127633883	"mf"	"purine nucleoside binding"
"GO:0003824"	372	NA	10968	NA	3.4	1	0.00747808072666346	"mf"	"catalytic activity"
"GO:0017076"	138	NA	4105	NA	3.4	1	0.00505804142673984	"mf"	"purine nucleotide binding"
"GO:0032549"	135	NA	4029	NA	3.4	1	0.00461714127633883	"mf"	"ribonucleoside binding"
"GO:0032550"	135	NA	4029	NA	3.4	1	0.00461714127633883	"mf"	"purine ribonucleoside binding"
"GO:0032553"	138	NA	4069	NA	3.4	1	0.00764239044575187	"mf"	"ribonucleotide binding"
"GO:0032555"	135	NA	4029	NA	3.4	1	0.00461714127633883	"mf"	"purine ribonucleotide binding"
"GO:0035639"	124	NA	3695	NA	3.4	1	0.0325211590068758	"mf"	"purine ribonucleoside triphosphate binding"
"GO:0043168"	155	NA	4552	NA	3.4	1	0.00943568712983115	"mf"	"anion binding"
"GO:0001882"	135	NA	4031	NA	3.3	1	0.00461714127633883	"mf"	"nucleoside binding"
"GO:0016740"	126	NA	4268	NA	3	1	0.00461714127633883	"mf"	"transferase activity"
"GO:0030554"	110	NA	3712	NA	3	1	2.43485433529258e-05	"mf"	"adenyl nucleotide binding"
"GO:0032559"	108	NA	3647	NA	3	1	2.43485433529258e-05	"mf"	"adenyl ribonucleotide binding"
"GO:0005524"	97	NA	3312	NA	2.9	1	0.00024123003473081	"mf"	"ATP binding"
"GO:0006793"	59	NA	2376	NA	2.5	1	0.00461714127633883	"bp"	"phosphorus metabolic process"
"GO:0006796"	59	NA	2376	NA	2.5	1	0.00461714127633883	"bp"	"phosphate-containing compound metabolic process"
"GO:0016772"	60	NA	2443	NA	2.5	1	0.000468462551536451	"mf"	"transferase activity, transferring phosphorus-containing groups"
"GO:0043412"	59	NA	2363	NA	2.5	1	0.00461714127633883	"bp"	"macromolecule modification"
"GO:0006464"	55	NA	2275	NA	2.4	1	0.00279845874704499	"bp"	"cellular protein modification process"
"GO:0036211"	55	NA	2275	NA	2.4	1	0.00279845874704499	"bp"	"protein modification process"
"GO:0031224"	27	NA	1190	NA	2.3	1	0.0903826061294472	"cc"	"intrinsic component of membrane"
"GO:0016021"	26	NA	1166	NA	2.2	1	0.0777639123032086	"cc"	"integral component of membrane"
"GO:0016301"	45	NA	2131	NA	2.1	1	0.000112976456639891	"mf"	"kinase activity"
"GO:0016310"	40	NA	1924	NA	2.1	1	0.000339052357882843	"bp"	"phosphorylation"
"GO:0006468"	37	NA	1883	NA	2	1	0.000112976456639891	"bp"	"protein phosphorylation"
"GO:0004672"	36	NA	1906	NA	1.9	1	2.43485433529258e-05	"mf"	"protein kinase activity"
"GO:0016773"	40	NA	2118	NA	1.9	1	6.8649240019323e-06	"mf"	"phosphotransferase activity, alcohol group as acceptor"
"GO:0006399"	0	NA	186	NA	0	1	0.0903826061294472	"bp"	"tRNA metabolic process"
"GO:0052689"	0	NA	203	NA	0	1	0.0679159742278118	"mf"	"carboxylic ester hydrolase activity"
